{
    "track":"typescript",
    "exercise":"rotational-cipher",
    "id":"2003c0ee05814e89bd98974728830be9",
    "url":"https://exercism.io/tracks/typescript/exercises/rotational-cipher/solutions/2003c0ee05814e89bd98974728830be9",
    "handle":"heptalophos",
    "is_requester":true,
    "auto_approve":false
}