{
    "track": "typescript",
    "exercise": "diffie-hellman",
    "id": "8427486c192d47e581f9f3d91359d0be",
    "url": "https://exercism.io/tracks/typescript/exercises/diffie-hellman/solutions/8427486c192d47e581f9f3d91359d0be",
    "handle": "heptalophos",
    "is_requester": true,
    "auto_approve": false
}