{
    "track":"typescript",
    "exercise":"word-count",
    "id":"f70a257f6ed24c1bb18e2fe1f801ce86",
    "url":"https://exercism.io/tracks/typescript/exercises/word-count/solutions/f70a257f6ed24c1bb18e2fe1f801ce86",
    "handle":"heptalophos",
    "is_requester":true,
    "auto_approve":false
}