{
    "track":"typescript",
    "exercise":"leap",
    "id":"31e1808019e54d18b2b1ed4c8a9b196b",
    "url":"https://exercism.io/tracks/typescript/exercises/leap/solutions/31e1808019e54d18b2b1ed4c8a9b196b",
    "handle":"heptalophos",
    "is_requester":true,
    "auto_approve":false
}