{
    "track":"typescript",
    "exercise":"all-your-base",
    "id":"6ac0972575f7436599766e83bc355dc8",
    "url":"https://exercism.io/tracks/typescript/exercises/all-your-base/solutions/6ac0972575f7436599766e83bc355dc8",
    "handle":"heptalophos",
    "is_requester":true,
    "auto_approve":false
}