{
    "track":"typescript",
    "exercise":"run-length-encoding",
    "id":"fc39bd36551a4afeb19c6df0e9b4f8c8",
    "url":"https://exercism.io/tracks/typescript/exercises/run-length-encoding/solutions/fc39bd36551a4afeb19c6df0e9b4f8c8",
    "handle":"heptalophos",
    "is_requester":true,
    "auto_approve":false
}